p3/dump.vcd
$date
	Wed Mar 07 16:04:46 2018
$end
$version
	Icarus Verilog
$end
$timescale
	1s
$end
$scope module tb_fact $end
$var wire 32 ! im_dout [31:0] $end
$var wire 32 " im_addr [31:0] $end
$var wire 1 # dm_rw $end
$var wire 32 $ dm_dout [31:0] $end
$var wire 32 % dm_din [31:0] $end
$var wire 32 & dm_addr [31:0] $end
$var wire 2 ' dm_access_sz [1:0] $end
$var reg 1 ( clk $end
$var reg 2 ) im_access_sz [1:0] $end
$var reg 1 * im_rw $end
$var reg 1 + reset $end
$scope module dmem $end
$var wire 1 ( clk $end
$var wire 1 , enable $end
$var wire 1 # rd_wr $end
$var wire 30 - data_index [29:0] $end
$var wire 32 . data_in [31:0] $end
$var wire 1 / busy $end
$var wire 32 0 addr [31:0] $end
$var wire 2 1 access_size [1:0] $end
$var reg 30 2 burst_addr [29:0] $end
$var reg 4 3 burst_count [3:0] $end
$var reg 1 4 burst_rd_wr $end
$var reg 32 5 data_out [31:0] $end
$upscope $end
$scope module imem $end
$var wire 2 6 access_size [1:0] $end
$var wire 1 ( clk $end
$var wire 32 7 data_in [31:0] $end
$var wire 1 8 enable $end
$var wire 1 * rd_wr $end
$var wire 30 9 data_index [29:0] $end
$var wire 1 : busy $end
$var wire 32 ; addr [31:0] $end
$var reg 30 < burst_addr [29:0] $end
$var reg 4 = burst_count [3:0] $end
$var reg 1 > burst_rd_wr $end
$var reg 32 ? data_out [31:0] $end
$upscope $end
$scope module proc $end
$var wire 1 ( clk $end
$var wire 32 @ data_in [31:0] $end
$var wire 32 A data_out [31:0] $end
$var wire 1 # data_rd_wr $end
$var wire 32 B instr_in [31:0] $end
$var wire 1 + reset $end
$var wire 32 C reg_wr_data [31:0] $end
$var wire 5 D reg_rd_num1 [4:0] $end
$var wire 5 E reg_rd_num0 [4:0] $end
$var wire 32 F reg_rd_data1 [31:0] $end
$var wire 32 G reg_rd_data0 [31:0] $end
$var wire 32 H instr_addr [31:0] $end
$var reg 32 I a [31:0] $end
$var reg 32 J alu_out [31:0] $end
$var reg 32 K b [31:0] $end
$var reg 2 L data_access_size [1:0] $end
$var reg 32 M data_addr [31:0] $end
$var reg 32 N ir [31:0] $end
$var reg 32 O pc [31:0] $end
$var reg 1 P reg_wr_en $end
$var reg 5 Q reg_wr_num [4:0] $end
$var reg 32 R sign_ext_imm [31:0] $end
$var reg 1 S st_en $end
$var integer 32 T lbu [31:0] $end
$var integer 32 U lw [31:0] $end
$var integer 32 V state [31:0] $end
$scope module regs $end
$var wire 1 ( clk $end
$var wire 5 W rd0_num [4:0] $end
$var wire 5 X rd1_num [4:0] $end
$var wire 1 + reset $end
$var wire 32 Y wr_data [31:0] $end
$var wire 1 P wr_en $end
$var wire 5 Z wr_num [4:0] $end
$var wire 32 [ rd1_data [31:0] $end
$var wire 32 \ rd0_data [31:0] $end
$upscope $end
$upscope $end
$upscope $end
$enddefinitions $end
#0
$dumpvars
bx \
bx [
bx Z
bx Y
bx X
bx W
b0 V
b1 U
b0 T
xS
bx R
bx Q
0P
b10000000000000100000000000000000 O
bx N
bx M
bx L
bx K
bx J
bx I
b10000000000000100000000000000000 H
bx G
bx F
bx E
bx D
bx C
bz B
bx A
bz @
bz ?
x>
b0 =
bx <
b10000000000000100000000000000000 ;
0:
b0 9
08
bz 7
b1 6
bz 5
x4
b0 3
bx 2
bx 1
bx 0
0/
bx .
bx -
0,
1+
1*
b1 )
1(
bx '
bx &
bx %
bz $
x#
b10000000000000100000000000000000 "
bz !
$end
#5
0(
#10
1,
18
0+
1(
#15
0(
#20
1>
b1 <
b100111101111011111111111100000 !
b100111101111011111111111100000 ?
b100111101111011111111111100000 B
b1 V
1(
#25
0(
#30
b1 9
b10000000000100100000000000000000 G
b10000000000100100000000000000000 \
b10000000000100100000000000000000 F
b10000000000100100000000000000000 [
b11101 E
b11101 W
b11101 D
b11101 X
b1 '
b1 1
b1 L
b10 V
b10000000000000100000000000000100 "
b10000000000000100000000000000100 ;
b10000000000000100000000000000100 H
b10000000000000100000000000000100 O
b100111101111011111111111100000 N
1(
#35
0(
#40
b10 <
b10101111101111110000000000011100 !
b10101111101111110000000000011100 ?
b10101111101111110000000000011100 B
b11 V
b11111111111111111111111111100000 R
b10000000000100100000000000000000 %
b10000000000100100000000000000000 .
b10000000000100100000000000000000 A
b10000000000100100000000000000000 K
b10000000000100100000000000000000 I
1(
#45
0(
#50
1#
b10000000000100011111111111100000 C
b10000000000100011111111111100000 Y
b100 V
0S
b10000000000100011111111111100000 J
1(
#55
0(
#60
14
bx $
bx 5
bx @
b101 V
b11101 Q
b11101 Z
1P
1(
#65
0(
#70
b10000000000100011111111111100000 G
b10000000000100011111111111100000 \
b10000000000100011111111111100000 F
b10000000000100011111111111100000 [
b1 V
0P
1(
#75
0(
#80
b10 9
b0 F
b0 [
b11111 D
b11111 X
b10 V
b10000000000000100000000000001000 "
b10000000000000100000000000001000 ;
b10000000000000100000000000001000 H
b10000000000000100000000000001000 O
b10101111101111110000000000011100 N
1(
#85
0(
#90
b11 <
b10101111101111100000000000011000 !
b10101111101111100000000000011000 ?
b10101111101111100000000000011000 B
b11 V
b11100 R
b0 %
b0 .
b0 A
b0 K
b10000000000100011111111111100000 I
1(
#95
0(
#100
b111111111111111111 -
0#
b100 V
b10000000000100011111111111111100 &
b10000000000100011111111111111100 0
b10000000000100011111111111111100 M
1S
1(
#105
0(
#110
1#
04
b1000000000000000000 2
b101 V
0S
b0 Q
b0 Z
1(
#115
0(
#120
14
b0 $
b0 5
b0 @
b1 V
1(
#125
0(
#130
b11 9
bx F
bx [
b11110 D
b11110 X
b10 V
b10000000000000100000000000001100 "
b10000000000000100000000000001100 ;
b10000000000000100000000000001100 H
b10000000000000100000000000001100 O
b10101111101111100000000000011000 N
1(
#135
0(
#140
b100 <
b11101000001111000000100001 !
b11101000001111000000100001 ?
b11101000001111000000100001 B
b11 V
b11000 R
bx %
bx .
bx A
bx K
1(
#145
0(
#150
b111111111111111110 -
0#
b100 V
b10000000000100011111111111111000 &
b10000000000100011111111111111000 0
b10000000000100011111111111111000 M
1S
1(
#155
0(
#160
1#
04
b111111111111111111 2
b101 V
0S
1(
#165
0(
#170
14
bx $
bx 5
bx @
b1 V
1(
#175
0(
#180
b100 9
b0 F
b0 [
b0 D
b0 X
b10 V
b10000000000000100000000000010000 "
b10000000000000100000000000010000 ;
b10000000000000100000000000010000 H
b10000000000000100000000000010000 O
b11101000001111000000100001 N
1(
#185
0(
#190
b101 <
b10101111110000000000000000010000 !
b10101111110000000000000000010000 ?
b10101111110000000000000000010000 B
b11 V
b11111111111111111111000000100001 R
b0 %
b0 .
b0 A
b0 K
1(
#195
0(
#200
b100 V
1(
#205
0(
#210
b101 V
b11110 Q
b11110 Z
1P
1(
#215
0(
#220
b1 V
0P
1(
#225
0(
#230
b101 9
b11110 E
b11110 W
b10 V
b10000000000000100000000000010100 "
b10000000000000100000000000010100 ;
b10000000000000100000000000010100 H
b10000000000000100000000000010100 O
b10101111110000000000000000010000 N
1(
#235
0(
#240
b110 <
b1000000000001000000000001110 !
b1000000000001000000000001110 ?
b1000000000001000000000001110 B
b11 V
b10000 R
1(
#245
0(
#250
b111111111111111100 -
0#
b100 V
b10000000000100011111111111110000 &
b10000000000100011111111111110000 0
b10000000000100011111111111110000 M
1S
1(
#255
0(
#260
1#
04
b111111111111111101 2
b101 V
0S
b0 Q
b0 Z
1(
#265
0(
#270
14
b0 $
b0 5
b0 @
b1 V
1(
#275
0(
#280
b110 9
b0 G
b0 \
b0 E
b0 W
b10 V
b10000000000000100000000000011000 "
b10000000000000100000000000011000 ;
b10000000000000100000000000011000 H
b10000000000000100000000000011000 O
b1000000000001000000000001110 N
1(
#285
0(
#290
b111 <
b0 !
b0 ?
b0 B
b11 V
b100000000000111000 R
b0 I
1(
#295
0(
#300
b100 V
1(
#305
0(
#310
b1110 9
b101 V
b10000000000000100000000000111000 "
b10000000000000100000000000111000 ;
b10000000000000100000000000111000 H
b10000000000000100000000000111000 O
1(
#315
0(
#320
b1111 <
b10001111110000100000000000010000 !
b10001111110000100000000000010000 ?
b10001111110000100000000000010000 B
b1 V
1(
#325
0(
#330
b1111 9
b10000000000100011111111111100000 G
b10000000000100011111111111100000 \
bx F
bx [
b11110 E
b11110 W
b10 D
b10 X
b10 V
b10000000000000100000000000111100 "
b10000000000000100000000000111100 ;
b10000000000000100000000000111100 H
b10000000000000100000000000111100 O
b10001111110000100000000000010000 N
1(
#335
0(
#340
b10000 <
b101000010000100000000000001010 !
b101000010000100000000000001010 ?
b101000010000100000000000001010 B
b11 V
b10000 R
bx %
bx .
bx A
bx K
b10000000000100011111111111100000 I
1(
#345
0(
#350
b100 V
1(
#355
0(
#360
b0 C
b0 Y
b101 V
b0 U
b10 Q
b10 Z
1P
1(
#365
0(
#370
b0 F
b0 [
b10000000000100011111111111100000 C
b10000000000100011111111111100000 Y
b1 V
0P
b1 U
1(
#375
0(
#380
b10000 9
b0 G
b0 \
b10 E
b10 W
b10 V
b10000000000000100000000001000000 "
b10000000000000100000000001000000 ;
b10000000000000100000000001000000 H
b10000000000000100000000001000000 O
b101000010000100000000000001010 N
1(
#385
0(
#390
b10001 <
b10100010000001111111111110110 !
b10100010000001111111111110110 ?
b10100010000001111111111110110 B
b11 V
b1010 R
b0 %
b0 .
b0 A
b0 K
b0 I
1(
#395
0(
#400
b1 C
b1 Y
b100 V
b1 J
1(
#405
0(
#410
b101 V
1P
1(
#415
0(
#420
b1 G
b1 \
b1 F
b1 [
b1 V
0P
1(
#425
0(
#430
b10001 9
b0 F
b0 [
b0 D
b0 X
b10 V
b10000000000000100000000001000100 "
b10000000000000100000000001000100 ;
b10000000000000100000000001000100 H
b10000000000000100000000001000100 O
b10100010000001111111111110110 N
1(
#435
0(
#440
b10010 <
b0 !
b0 ?
b0 B
b11 V
b11111111111111111111111111011000 R
b1 I
1(
#445
0(
#450
b100 V
1(
#455
0(
#460
b111 9
b101 V
b0 Q
b0 Z
b10000000000000100000000000011100 "
b10000000000000100000000000011100 ;
b10000000000000100000000000011100 H
b10000000000000100000000000011100 O
1(
#465
0(
#470
b1000 <
b10001111110001000000000000010000 !
b10001111110001000000000000010000 ?
b10001111110001000000000000010000 B
b1 V
1(
#475
0(
#480
b1000 9
b10000000000100011111111111100000 G
b10000000000100011111111111100000 \
bx F
bx [
b11110 E
b11110 W
b100 D
b100 X
b10 V
b10000000000000100000000000100000 "
b10000000000000100000000000100000 ;
b10000000000000100000000000100000 H
b10000000000000100000000000100000 O
b10001111110001000000000000010000 N
1(
#485
0(
#490
b1001 <
b1100000000001000000000011001 !
b1100000000001000000000011001 ?
b1100000000001000000000011001 B
b11 V
b10000 R
bx %
bx .
bx A
bx K
b10000000000100011111111111100000 I
1(
#495
0(
#500
b100 V
1(
#505
0(
#510
b0 C
b0 Y
b101 V
b0 U
b100 Q
b100 Z
1P
1(
#515
0(
#520
b1 C
b1 Y
b0 F
b0 [
b1 V
0P
b1 U
1(
#525
0(
#530
b1001 9
b0 G
b0 \
b0 E
b0 W
b0 D
b0 X
b10 V
b10000000000000100000000000100100 "
b10000000000000100000000000100100 ;
b10000000000000100000000000100100 H
b10000000000000100000000000100100 O
b1100000000001000000000011001 N
1(
#535
0(
#540
b1010 <
b0 !
b0 ?
b0 B
b11 V
b100000000001100100 R
b0 %
b0 .
b0 A
b0 K
b0 I
1(
#545
0(
#550
b10000000000000100000000000101000 C
b10000000000000100000000000101000 Y
b100 V
b10000000000000100000000000101000 J
1(
#555
0(
#560
b11001 9
b101 V
b11111 Q
b11111 Z
1P
b10000000000000100000000001100100 "
b10000000000000100000000001100100 ;
b10000000000000100000000001100100 H
b10000000000000100000000001100100 O
1(
#565
0(
#570
b11010 <
b100111101111011111111111101000 !
b100111101111011111111111101000 ?
b100111101111011111111111101000 B
b1 V
0P
1(
#575
0(
#580
b11010 9
b10000000000100011111111111100000 G
b10000000000100011111111111100000 \
b10000000000100011111111111100000 F
b10000000000100011111111111100000 [
b11101 E
b11101 W
b11101 D
b11101 X
b10 V
b10000000000000100000000001101000 "
b10000000000000100000000001101000 ;
b10000000000000100000000001101000 H
b10000000000000100000000001101000 O
b100111101111011111111111101000 N
1(
#585
0(
#590
b11011 <
b10101111101111110000000000010100 !
b10101111101111110000000000010100 ?
b10101111101111110000000000010100 B
b11 V
b11111111111111111111111111101000 R
b10000000000100011111111111100000 %
b10000000000100011111111111100000 .
b10000000000100011111111111100000 A
b10000000000100011111111111100000 K
b10000000000100011111111111100000 I
1(
#595
0(
#600
b10000000000100011111111111001000 C
b10000000000100011111111111001000 Y
b100 V
b10000000000100011111111111001000 J
1(
#605
0(
#610
b101 V
b11101 Q
b11101 Z
1P
1(
#615
0(
#620
b10000000000100011111111111001000 G
b10000000000100011111111111001000 \
b10000000000100011111111111001000 F
b10000000000100011111111111001000 [
b1 V
0P
1(
#625
0(
#630
b11011 9
b10000000000000100000000000101000 F
b10000000000000100000000000101000 [
b11111 D
b11111 X
b10 V
b10000000000000100000000001101100 "
b10000000000000100000000001101100 ;
b10000000000000100000000001101100 H
b10000000000000100000000001101100 O
b10101111101111110000000000010100 N
1(
#635
0(
#640
b11100 <
b10101111101111100000000000010000 !
b10101111101111100000000000010000 ?
b10101111101111100000000000010000 B
b11 V
b10100 R
b10000000000000100000000000101000 %
b10000000000000100000000000101000 .
b10000000000000100000000000101000 A
b10000000000000100000000000101000 K
b10000000000100011111111111001000 I
1(
#645
0(
#650
b111111111111110111 -
0#
b100 V
b10000000000100011111111111011100 &
b10000000000100011111111111011100 0
b10000000000100011111111111011100 M
1S
1(
#655
0(
#660
1#
04
b111111111111111000 2
b101 V
0S
b0 Q
b0 Z
1(
#665
0(
#670
14
b10000000000000100000000000101000 $
b10000000000000100000000000101000 5
b10000000000000100000000000101000 @
b1 V
1(
#675
0(
#680
b11100 9
b10000000000100011111111111100000 F
b10000000000100011111111111100000 [
b11110 D
b11110 X
b10 V
b10000000000000100000000001110000 "
b10000000000000100000000001110000 ;
b10000000000000100000000001110000 H
b10000000000000100000000001110000 O
b10101111101111100000000000010000 N
1(
#685
0(
#690
b11101 <
b11101000001111000000100001 !
b11101000001111000000100001 ?
b11101000001111000000100001 B
b11 V
b10000 R
b10000000000100011111111111100000 %
b10000000000100011111111111100000 .
b10000000000100011111111111100000 A
b10000000000100011111111111100000 K
1(
#695
0(
#700
b111111111111110110 -
0#
b100 V
b10000000000100011111111111011000 &
b10000000000100011111111111011000 0
b10000000000100011111111111011000 M
1S
1(
#705
0(
#710
1#
04
b111111111111110111 2
b101 V
0S
1(
#715
0(
#720
14
b10000000000100011111111111100000 $
b10000000000100011111111111100000 5
b10000000000100011111111111100000 @
b1 V
1(
#725
0(
#730
b11101 9
b0 F
b0 [
b0 D
b0 X
b10 V
b10000000000000100000000001110100 "
b10000000000000100000000001110100 ;
b10000000000000100000000001110100 H
b10000000000000100000000001110100 O
b11101000001111000000100001 N
1(
#735
0(
#740
b11110 <
b10101111110001000000000000011000 !
b10101111110001000000000000011000 ?
b10101111110001000000000000011000 B
b11 V
b11111111111111111111000000100001 R
b0 %
b0 .
b0 A
b0 K
1(
#745
0(
#750
b100 V
1(
#755
0(
#760
b101 V
b11110 Q
b11110 Z
1P
1(
#765
0(
#770
b1 V
0P
1(
#775
0(
#780
b11110 9
b11110 E
b11110 W
b100 D
b100 X
b10 V
b10000000000000100000000001111000 "
b10000000000000100000000001111000 ;
b10000000000000100000000001111000 H
b10000000000000100000000001111000 O
b10101111110001000000000000011000 N
1(
#785
0(
#790
b11111 <
b10001111110000100000000000011000 !
b10001111110000100000000000011000 ?
b10001111110000100000000000011000 B
b11 V
b11000 R
1(
#795
0(
#800
b111111111111111000 -
0#
b100 V
b10000000000100011111111111100000 &
b10000000000100011111111111100000 0
b10000000000100011111111111100000 M
1S
1(
#805
0(
#810
1#
04
b111111111111111001 2
b101 V
0S
b0 Q
b0 Z
1(
#815
0(
#820
14
b0 $
b0 5
b0 @
b1 V
1(
#825
0(
#830
b11111 9
b1 F
b1 [
b10 D
b10 X
b10 V
b10000000000000100000000001111100 "
b10000000000000100000000001111100 ;
b10000000000000100000000001111100 H
b10000000000000100000000001111100 O
b10001111110000100000000000011000 N
1(
#835
0(
#840
b100000 <
b10100010000000000000000000100 !
b10100010000000000000000000100 ?
b10100010000000000000000000100 B
b11 V
b1 %
b1 .
b1 A
b1 K
1(
#845
0(
#850
b100 V
1(
#855
0(
#860
b0 C
b0 Y
b101 V
b0 U
b10 Q
b10 Z
1P
1(
#865
0(
#870
b0 F
b0 [
b10000000000100011111111111001000 C
b10000000000100011111111111001000 Y
b1 V
0P
b1 U
1(
#875
0(
#880
b100000 9
b0 G
b0 \
b10 E
b10 W
b0 D
b0 X
b10 V
b10000000000000100000000010000000 "
b10000000000000100000000010000000 ;
b10000000000000100000000010000000 H
b10000000000000100000000010000000 O
b10100010000000000000000000100 N
1(
#885
0(
#890
b100001 <
b0 !
b0 ?
b0 B
b11 V
b10000 R
b0 %
b0 .
b0 A
b0 K
b0 I
1(
#895
0(
#900
b0 C
b0 Y
b100 V
b0 J
1(
#905
0(
#910
b101 V
b0 Q
b0 Z
1(
#915
0(
#920
b1 V
1(
#925
0(
#930
b100001 9
b0 E
b0 W
b10 V
b10000000000000100000000010000100 "
b10000000000000100000000010000100 ;
b10000000000000100000000010000100 H
b10000000000000100000000010000100 O
b0 N
1(
#935
0(
#940
b100010 <
b100100000000100000000000000001 !
b100100000000100000000000000001 ?
b100100000000100000000000000001 B
b11 V
b0 R
1(
#945
0(
#950
b100 V
1(
#955
0(
#960
b101 V
1(
#965
0(
#970
b1 V
1(
#975
0(
#980
b100010 9
b10 D
b10 X
b10 V
b10000000000000100000000010001000 "
b10000000000000100000000010001000 ;
b10000000000000100000000010001000 H
b10000000000000100000000010001000 O
b100100000000100000000000000001 N
1(
#985
0(
#990
b100011 <
b1000000000001000000000101100 !
b1000000000001000000000101100 ?
b1000000000001000000000101100 B
b11 V
b1 R
1(
#995
0(
#1000
b1 C
b1 Y
b100 V
b1 J
1(
#1005
0(
#1010
b101 V
b10 Q
b10 Z
1P
1(
#1015
0(
#1020
b1 F
b1 [
b1 V
0P
1(
#1025
0(
#1030
b100011 9
b0 F
b0 [
b0 D
b0 X
b10 V
b10000000000000100000000010001100 "
b10000000000000100000000010001100 ;
b10000000000000100000000010001100 H
b10000000000000100000000010001100 O
b1000000000001000000000101100 N
1(
#1035
0(
#1040
b100100 <
b0 !
b0 ?
b0 B
b11 V
b100000000010110000 R
1(
#1045
0(
#1050
b100 V
1(
#1055
0(
#1060
b101100 9
b101 V
b0 Q
b0 Z
b10000000000000100000000010110000 "
b10000000000000100000000010110000 ;
b10000000000000100000000010110000 H
b10000000000000100000000010110000 O
1(
#1065
0(
#1070
b101101 <
b11110000001110100000100001 !
b11110000001110100000100001 ?
b11110000001110100000100001 B
b1 V
1(
#1075
0(
#1080
b101101 9
b10000000000100011111111111001000 G
b10000000000100011111111111001000 \
b11110 E
b11110 W
b10 V
b10000000000000100000000010110100 "
b10000000000000100000000010110100 ;
b10000000000000100000000010110100 H
b10000000000000100000000010110100 O
b11110000001110100000100001 N
1(
#1085
0(
#1090
b101110 <
b10001111101111110000000000010100 !
b10001111101111110000000000010100 ?
b10001111101111110000000000010100 B
b11 V
b11111111111111111110100000100001 R
b10000000000100011111111111001000 I
1(
#1095
0(
#1100
b10000000000100011111111111001000 C
b10000000000100011111111111001000 Y
b100 V
b10000000000100011111111111001000 J
1(
#1105
0(
#1110
b101 V
b11101 Q
b11101 Z
1P
1(
#1115
0(
#1120
b1 V
0P
1(
#1125
0(
#1130
b101110 9
b10000000000000100000000000101000 F
b10000000000000100000000000101000 [
b11101 E
b11101 W
b11111 D
b11111 X
b10 V
b10000000000000100000000010111000 "
b10000000000000100000000010111000 ;
b10000000000000100000000010111000 H
b10000000000000100000000010111000 O
b10001111101111110000000000010100 N
1(
#1135
0(
#1140
b101111 <
b10001111101111100000000000010000 !
b10001111101111100000000000010000 ?
b10001111101111100000000000010000 B
b11 V
b10100 R
b10000000000000100000000000101000 %
b10000000000000100000000000101000 .
b10000000000000100000000000101000 A
b10000000000000100000000000101000 K
1(
#1145
0(
#1150
b111111111111110111 -
b100 V
b10000000000100011111111111011100 &
b10000000000100011111111111011100 0
b10000000000100011111111111011100 M
1(
#1155
0(
#1160
b10000000000000100000000000101000 C
b10000000000000100000000000101000 Y
b111111111111111000 2
b10000000000000100000000000101000 $
b10000000000000100000000000101000 5
b10000000000000100000000000101000 @
b101 V
b0 U
b11111 Q
b11111 Z
1P
1(
#1165
0(
#1170
b10000000000100011111111111001000 C
b10000000000100011111111111001000 Y
b1 V
0P
b1 U
1(
#1175
0(
#1180
b101111 9
b10000000000100011111111111001000 F
b10000000000100011111111111001000 [
b11110 D
b11110 X
b10 V
b10000000000000100000000010111100 "
b10000000000000100000000010111100 ;
b10000000000000100000000010111100 H
b10000000000000100000000010111100 O
b10001111101111100000000000010000 N
1(
#1185
0(
#1190
b110000 <
b100111101111010000000000011000 !
b100111101111010000000000011000 ?
b100111101111010000000000011000 B
b11 V
b10000 R
b10000000000100011111111111001000 %
b10000000000100011111111111001000 .
b10000000000100011111111111001000 A
b10000000000100011111111111001000 K
1(
#1195
0(
#1200
b111111111111110110 -
b100 V
b10000000000100011111111111011000 &
b10000000000100011111111111011000 0
b10000000000100011111111111011000 M
1(
#1205
0(
#1210
b10000000000100011111111111100000 C
b10000000000100011111111111100000 Y
b111111111111110111 2
b10000000000100011111111111100000 $
b10000000000100011111111111100000 5
b10000000000100011111111111100000 @
b101 V
b0 U
b11110 Q
b11110 Z
1P
1(
#1215
0(
#1220
b10000000000100011111111111001000 C
b10000000000100011111111111001000 Y
b10000000000100011111111111100000 F
b10000000000100011111111111100000 [
b1 V
0P
b1 U
1(
#1225
0(
#1230
b110000 9
b10000000000100011111111111001000 F
b10000000000100011111111111001000 [
b11101 D
b11101 X
b10 V
b10000000000000100000000011000000 "
b10000000000000100000000011000000 ;
b10000000000000100000000011000000 H
b10000000000000100000000011000000 O
b100111101111010000000000011000 N
1(
#1235
0(
#1240
b110001 <
b11111000000000000000001000 !
b11111000000000000000001000 ?
b11111000000000000000001000 B
b11 V
b11000 R
1(
#1245
0(
#1250
b10000000000100011111111111100000 C
b10000000000100011111111111100000 Y
b100 V
b10000000000100011111111111100000 J
1(
#1255
0(
#1260
b101 V
b11101 Q
b11101 Z
1P
1(
#1265
0(
#1270
b10000000000100011111111111100000 G
b10000000000100011111111111100000 \
b10000000000100011111111111100000 F
b10000000000100011111111111100000 [
b1 V
0P
1(
#1275
0(
#1280
b110001 9
b10000000000000100000000000101000 G
b10000000000000100000000000101000 \
b0 F
b0 [
b11111 E
b11111 W
b0 D
b0 X
b10 V
b10000000000000100000000011000100 "
b10000000000000100000000011000100 ;
b10000000000000100000000011000100 H
b10000000000000100000000011000100 O
b11111000000000000000001000 N
1(
#1285
0(
#1290
b110010 <
b0 !
b0 ?
b0 B
b11 V
b1000 R
b10000000000000100000000000101000 I
1(
#1295
0(
#1300
b100 V
1(
#1305
0(
#1310
b1010 9
b101 V
b10000000000000100000000000101000 "
b10000000000000100000000000101000 ;
b10000000000000100000000000101000 H
b10000000000000100000000000101000 O
b0 Q
b0 Z
1(
#1315
0(
#1320
b1011 <
b10101111110000100000000000010100 !
b10101111110000100000000000010100 ?
b10101111110000100000000000010100 B
b1 V
1(
#1325
0(
#1330
b1011 9
b10000000000100011111111111100000 G
b10000000000100011111111111100000 \
b1 F
b1 [
b11110 E
b11110 W
b10 D
b10 X
b10 V
b10000000000000100000000000101100 "
b10000000000000100000000000101100 ;
b10000000000000100000000000101100 H
b10000000000000100000000000101100 O
b10101111110000100000000000010100 N
1(
#1335
0(
#1340
b1100 <
b10001111110000100000000000010000 !
b10001111110000100000000000010000 ?
b10001111110000100000000000010000 B
b11 V
b10100 R
b1 %
b1 .
b1 A
b1 K
b10000000000100011111111111100000 I
1(
#1345
0(
#1350
b111111111111111101 -
0#
b100 V
b10000000000100011111111111110100 &
b10000000000100011111111111110100 0
b10000000000100011111111111110100 M
1S
1(
#1355
0(
#1360
1#
04
b111111111111111110 2
b101 V
0S
1(
#1365
0(
#1370
14
b1 $
b1 5
b1 @
b1 V
1(
#1375
0(
#1380
b1100 9
b10 V
b10000000000000100000000000110000 "
b10000000000000100000000000110000 ;
b10000000000000100000000000110000 H
b10000000000000100000000000110000 O
b10001111110000100000000000010000 N
1(
#1385
0(
#1390
b1101 <
b100100010000100000000000000001 !
b100100010000100000000000000001 ?
b100100010000100000000000000001 B
b11 V
b10000 R
1(
#1395
0(
#1400
b111111111111111100 -
b100 V
b10000000000100011111111111110000 &
b10000000000100011111111111110000 0
b10000000000100011111111111110000 M
1(
#1405
0(
#1410
b0 C
b0 Y
b111111111111111101 2
b0 $
b0 5
b0 @
b101 V
b0 U
b10 Q
b10 Z
1P
1(
#1415
0(
#1420
b10000000000100011111111111100000 C
b10000000000100011111111111100000 Y
b0 F
b0 [
b1 V
0P
b1 U
1(
#1425
0(
#1430
b1101 9
b0 G
b0 \
b10 E
b10 W
b10 V
b10000000000000100000000000110100 "
b10000000000000100000000000110100 ;
b10000000000000100000000000110100 H
b10000000000000100000000000110100 O
b100100010000100000000000000001 N
1(
#1435
0(
#1440
b1110 <
b10101111110000100000000000010000 !
b10101111110000100000000000010000 ?
b10101111110000100000000000010000 B
b11 V
b1 R
b0 %
b0 .
b0 A
b0 K
b0 I
1(
#1445
0(
#1450
b1 C
b1 Y
b100 V
b1 J
1(
#1455
0(
#1460
b101 V
1P
1(
#1465
0(
#1470
b1 G
b1 \
b1 F
b1 [
b1 V
0P
1(
#1475
0(
#1480
b1110 9
b10000000000100011111111111100000 G
b10000000000100011111111111100000 \
b11110 E
b11110 W
b10 V
b10000000000000100000000000111000 "
b10000000000000100000000000111000 ;
b10000000000000100000000000111000 H
b10000000000000100000000000111000 O
b10101111110000100000000000010000 N
1(
#1485
0(
#1490
b1111 <
b10001111110000100000000000010000 !
b10001111110000100000000000010000 ?
b10001111110000100000000000010000 B
b11 V
b10000 R
b1 %
b1 .
b1 A
b1 K
b10000000000100011111111111100000 I
1(
#1495
0(
#1500
0#
b100 V
1S
1(
#1505
0(
#1510
1#
04
b101 V
0S
b0 Q
b0 Z
1(
#1515
0(
#1520
14
b1 $
b1 5
b1 @
b1 V
1(
#1525
0(
#1530
b1111 9
b10 V
b10000000000000100000000000111100 "
b10000000000000100000000000111100 ;
b10000000000000100000000000111100 H
b10000000000000100000000000111100 O
b10001111110000100000000000010000 N
1(
#1535
0(
#1540
b10000 <
b101000010000100000000000001010 !
b101000010000100000000000001010 ?
b101000010000100000000000001010 B
b11 V
1(
#1545
0(
#1550
b100 V
1(
#1555
0(
#1560
b101 V
b0 U
b10 Q
b10 Z
1P
1(
#1565
0(
#1570
b1 V
0P
b1 U
1(
#1575
0(
#1580
b10000 9
b1 G
b1 \
b10 E
b10 W
b10 V
b10000000000000100000000001000000 "
b10000000000000100000000001000000 ;
b10000000000000100000000001000000 H
b10000000000000100000000001000000 O
b101000010000100000000000001010 N
1(
#1585
0(
#1590
b10001 <
b10100010000001111111111110110 !
b10100010000001111111111110110 ?
b10100010000001111111111110110 B
b11 V
b1010 R
b1 I
1(
#1595
0(
#1600
b100 V
1(
#1605
0(
#1610
b101 V
1P
1(
#1615
0(
#1620
b1 V
0P
1(
#1625
0(
#1630
b10001 9
b0 F
b0 [
b0 D
b0 X
b10 V
b10000000000000100000000001000100 "
b10000000000000100000000001000100 ;
b10000000000000100000000001000100 H
b10000000000000100000000001000100 O
b10100010000001111111111110110 N
1(
#1635
0(
#1640
b10010 <
b0 !
b0 ?
b0 B
b11 V
b11111111111111111111111111011000 R
b0 %
b0 .
b0 A
b0 K
1(
#1645
0(
#1650
b100 V
1(
#1655
0(
#1660
b111 9
b101 V
b0 Q
b0 Z
b10000000000000100000000000011100 "
b10000000000000100000000000011100 ;
b10000000000000100000000000011100 H
b10000000000000100000000000011100 O
1(
#1665
0(
#1670
b1000 <
b10001111110001000000000000010000 !
b10001111110001000000000000010000 ?
b10001111110001000000000000010000 B
b1 V
1(
#1675
0(
#1680
b1000 9
b10000000000100011111111111100000 G
b10000000000100011111111111100000 \
b11110 E
b11110 W
b100 D
b100 X
b10 V
b10000000000000100000000000100000 "
b10000000000000100000000000100000 ;
b10000000000000100000000000100000 H
b10000000000000100000000000100000 O
b10001111110001000000000000010000 N
1(
#1685
0(
#1690
b1001 <
b1100000000001000000000011001 !
b1100000000001000000000011001 ?
b1100000000001000000000011001 B
b11 V
b10000 R
b10000000000100011111111111100000 I
1(
#1695
0(
#1700
b100 V
1(
#1705
0(
#1710
b101 V
b0 U
b100 Q
b100 Z
1P
1(
#1715
0(
#1720
b1 F
b1 [
b1 V
0P
b1 U
1(
#1725
0(
#1730
b1001 9
b0 G
b0 \
b0 F
b0 [
b0 E
b0 W
b0 D
b0 X
b10 V
b10000000000000100000000000100100 "
b10000000000000100000000000100100 ;
b10000000000000100000000000100100 H
b10000000000000100000000000100100 O
b1100000000001000000000011001 N
1(
#1735
0(
#1740
b1010 <
b0 !
b0 ?
b0 B
b11 V
b100000000001100100 R
b0 I
1(
#1745
0(
#1750
b10000000000000100000000000101000 C
b10000000000000100000000000101000 Y
b100 V
b10000000000000100000000000101000 J
1(
#1755
0(
#1760
b11001 9
b101 V
b11111 Q
b11111 Z
1P
b10000000000000100000000001100100 "
b10000000000000100000000001100100 ;
b10000000000000100000000001100100 H
b10000000000000100000000001100100 O
1(
#1765
0(
